<?xml version="1.0" encoding="utf-8"?>
<svg version="1.1" id="sqe_icon" xmlns="http://www.w3.org/2000/svg" xmlns:xlink="http://www.w3.org/1999/xlink" x="0px" y="0px"
	 viewBox="0 0 64 64" enable-background="new 0 0 64 64" xml:space="preserve">
<path fill="#bebebe" d="M5,0c0,0,0,13.3,0,35.4C5,57.5,32,64,32,64s27-6.5,27-28.6C59,13.3,59,0,59,0H5z M43.5,17.9l2.6,2.6
	l-0.9,0.9l-2.6-2.6L43.5,17.9z M20.4,24.7c-1.1-1.1-2.9-1.1-4,0l2,2l-3.1,3.1L9,23.5l3.1-3.1l2,2c1.1-1.1,1.1-2.9,0-4l-0.7-0.7
	l7.7-7.7l0.7,0.7c1.1,1.1,2.9,1.1,4,0l0.8-0.8c1.3-1.3,3.3-1.3,4.6,0l0,0c0,0,0,0,0,0l0,0l2,2l-2.3,2.3l-0.7-0.7
	c-0.7-0.7-1.9-0.8-2.7,0.1C26.7,14.4,27,16,28.1,17l0.7,0.7l-1.4,1.4l0,0L22.5,24l0,0L21,25.4L20.4,24.7z M28.3,22.2
	c1.6,1.6,2.8,2.7,3.8,3.5c-1.2,1-2.2,2-3.1,2.9c-0.8-1-1.8-2.2-3.4-3.7L28.3,22.2z M23.9,25.4L23,24.5l4.8-4.8l0.9,0.9L23.9,25.4z
	 M21.3,42.8c-0.6-0.6-0.2-4.9,7.4-12.5c0.3-0.3,0.6-0.5,0.8-0.8c0,0,0,0,0,0c4.1-4,10.3-9.3,12.3-9.9l2.6,2.6
	c-0.5,1.9-5.5,7.8-9.5,11.9c0,0,0,0,0,0c-0.4,0.5-0.9,0.9-1.3,1.3C26.2,43,21.9,43.4,21.3,42.8z M45.4,42.1c-1.2,1.2-3.1,1.2-4.3,0
	c0,0,0,0-0.1-0.1l0,0l-6.3-6.3c1.2-1.2,2.7-2.8,4.2-4.5l6.4,6.4l0,0c0,0,0,0,0.1,0.1C46.6,39,46.6,40.9,45.4,42.1z M51.3,17.4
	c-1.8,3.7-4.6,2.7-4.6,2.7L44,17.4c0,0,0.3-2.3,2.7-4.1c2.4-1.8,7.4,0,8.3,0.7C54.6,13.7,53.2,13.7,51.3,17.4z"/>
</svg>
